dier,animal,n,dag,day
struisvogel,ostrich,1,1e dag,day 1
wild zwijn,warthog,20,1e dag,day 1
hartenbeest,hartebeest,1,1e dag,day 1
eekhoorn,squirrel,1,1e dag,day 1
zebra,zebra,104,1e dag,day 1
dikdik,dik-dik,15,1e dag,day 1
wildebeest,wildebeest,44,1e dag,day 1
olifant,elephant,13,1e dag,day 1
wildebeest,wildebeest,264,2e dag,day 2
olifant,elephant,75,2e dag,day 2
zebra,zebra,270,2e dag,day 2
dikdik,dik-dik,15,2e dag,day 2
buffel,buffalo,5,2e dag,day 2
nijlpaard,hippo,1,2e dag,day 2
wild zwijn,warthog,20,2e dag,day 2
slang,snake,1,2e dag,day 2
wildebeest,wildebeest,11,3e dag,day 3
olifant,elephant,19,3e dag,day 3
zebra,zebra,44,3e dag,day 3
dikdik,dik-dik,23,3e dag,day 3
slang,snake,1,3e dag,day 3
giraffe,giraffe,2,3e dag,day 3
eekhoorn,squirrel,1,3e dag,day 3
